1 1 401 PROCEDURE
1 11 1001 PR
1 13 1 ;
2 2 2 (
2 3 404 CONST
2 9 1002 FIRST
2 14 0 :
2 15 405 FLOAT
2 20 1 ;
3 2 404 CONST
3 8 1003 SECOND
3 14 0 :
3 15 406 INTEGER
3 22 1 ;
9 2 404 CONST
9 8 1004 THIRD
9 13 0 :
9 14 405 FLOAT
9 19 1 ;
10 2 404 CONST
10 8 1004 THIRD
10 13 0 :
10 14 405 FLOAT
10 20 3 )
10 21 1 ;
11 1 402 BEGIN
12 1 403 END
12 4 4 .
